…
``` r
# try recode function 

pols_month
```

    ## # A tibble: 822 x 9
    ##    year  month gov_gop sen_gop rep_gop gov_dem sen_dem rep_dem president
    ##    <chr> <chr>   <dbl>   <dbl>   <dbl>   <dbl>   <dbl>   <dbl> <lgl>    
    ##  1 1947  Jan        23      51     253      23      45     198 TRUE     
    ##  2 1947  Feb        23      51     253      23      45     198 TRUE     
    ##  3 1947  Mar        23      51     253      23      45     198 TRUE     
    ##  4 1947  Apr        23      51     253      23      45     198 TRUE     
    ##  5 1947  May        23      51     253      23      45     198 TRUE     
    ##  6 1947  Jun        23      51     253      23      45     198 TRUE     
    ##  7 1947  Jul        23      51     253      23      45     198 TRUE     
    ##  8 1947  Aug        23      51     253      23      45     198 TRUE     
    ##  9 1947  Sep        23      51     253      23      45     198 TRUE     
    ## 10 1947  Oct        23      51     253      23      45     198 TRUE     
    ## # … with 812 more rows
…
    ## Parsed with column specification:
    ## cols(
    ##   date = col_character(),
    ##   close = col_double()
    ## )

``` r
snp_data
```

    ## # A tibble: 787 x 4
    ##    year  month day   close
    ##    <chr> <chr> <chr> <dbl>
    ##  1 1950  Apr   3      18.0
    ##  2 1950  Aug   1      18.4
    ##  3 1950  Dec   1      20.4
    ##  4 1950  Feb   1      17.2
    ##  5 1950  Jan   3      17.0
    ##  6 1950  Jul   3      17.8
    ##  7 1950  Jun   1      17.7
    ##  8 1950  Mar   1      17.3
    ##  9 1950  May   1      18.8
    ## 10 1950  Nov   1      19.5
    ## # … with 777 more rows
…
``` r
unemp_data
```

    ## # A tibble: 816 x 3
    ##    year  month unemployment
    ##    <chr> <chr>        <dbl>
    ##  1 1948  Jan            3.4
    ##  2 1948  Feb            3.8
    ##  3 1948  Mar            4  
    ##  4 1948  Apr            3.9
    ##  5 1948  May            3.5
    ##  6 1948  Jun            3.6
    ##  7 1948  Jul            3.6
    ##  8 1948  Aug            3.9
    ##  9 1948  Sep            3.8
    ## 10 1948  Oct            3.7
    ## # … with 806 more rows

The unemp\_data dataset contains 816.

Finally, we combine the three datasets, starting by combining pols and
snp, then joining the combined dataset with the unemployment dataset.

822, 787

``` r
pols_snp = 
  left_join(pols_month, snp_data, by = c("year", "month"))
pols_snp
```

    ## # A tibble: 822 x 11
    ##    year  month gov_gop sen_gop rep_gop gov_dem sen_dem rep_dem president
    ##    <chr> <chr>   <dbl>   <dbl>   <dbl>   <dbl>   <dbl>   <dbl> <lgl>    
    ##  1 1947  Jan        23      51     253      23      45     198 TRUE     
    ##  2 1947  Feb        23      51     253      23      45     198 TRUE     
    ##  3 1947  Mar        23      51     253      23      45     198 TRUE     
    ##  4 1947  Apr        23      51     253      23      45     198 TRUE     
    ##  5 1947  May        23      51     253      23      45     198 TRUE     
    ##  6 1947  Jun        23      51     253      23      45     198 TRUE     
    ##  7 1947  Jul        23      51     253      23      45     198 TRUE     
    ##  8 1947  Aug        23      51     253      23      45     198 TRUE     
    ##  9 1947  Sep        23      51     253      23      45     198 TRUE     
    ## 10 1947  Oct        23      51     253      23      45     198 TRUE     
    ## # … with 812 more rows, and 2 more variables: day <chr>, close <dbl>
…
    ## Parsed with column specification:
    ## cols(
    ##   `Year of Birth` = col_double(),
    ##   Gender = col_character(),
    ##   Ethnicity = col_character(),
    ##   `Child's First Name` = col_character(),
    ##   Count = col_double(),
    ##   Rank = col_double()
    ## )

``` r
pop_names
```

    ## # A tibble: 12,181 x 6
    ##    year_of_birth gender ethnicity              childs_first_na… count  rank
    ##            <dbl> <chr>  <chr>                  <chr>            <dbl> <dbl>
    ##  1          2016 FEMALE ASIAN AND PACIFIC ISL… OLIVIA             172     1
    ##  2          2016 FEMALE ASIAN AND PACIFIC ISL… CHLOE              112     2
    ##  3          2016 FEMALE ASIAN AND PACIFIC ISL… SOPHIA             104     3
    ##  4          2016 FEMALE ASIAN AND PACIFIC ISL… EMILY               99     4
    ##  5          2016 FEMALE ASIAN AND PACIFIC ISL… EMMA                99     4
    ##  6          2016 FEMALE ASIAN AND PACIFIC ISL… MIA                 79     5
    ##  7          2016 FEMALE ASIAN AND PACIFIC ISL… CHARLOTTE           59     6
    ##  8          2016 FEMALE ASIAN AND PACIFIC ISL… SARAH               57     7
    ##  9          2016 FEMALE ASIAN AND PACIFIC ISL… ISABELLA            56     8
    ## 10          2016 FEMALE ASIAN AND PACIFIC ISL… HANNAH              56     8
    ## # … with 12,171 more rows
…
